{
  "collectionName": "components_survey_question_settings",
  "info": {
    "name": "questionSettings",
    "icon": "cog"
  },
  "options": {},
  "attributes": {
    "maxMultiSelect": {
      "type": "integer"
    },
    "minMultiSelect": {
      "type": "biginteger"
    }
  }
}
